<?xml version="1.0" encoding="UTF-8"?>
<svg id="Capa_2" data-name="Capa 2" xmlns="http://www.w3.org/2000/svg" xmlns:xlink="http://www.w3.org/1999/xlink" viewBox="0 0 126 127">
  <defs>
    <style>
      .cls-1 {
        fill: url(#Degradado_sin_nombre_18-2);
      }

      .cls-2 {
        fill: url(#Degradado_sin_nombre_18);
      }

      .cls-3 {
        fill: url(#Degradado_sin_nombre_18-5);
      }

      .cls-4 {
        fill: url(#Degradado_sin_nombre_18-7);
      }

      .cls-5 {
        fill: #fff;
        filter: url(#drop-shadow-1);
      }

      .cls-6 {
        fill: url(#Degradado_sin_nombre_18-8);
      }

      .cls-7 {
        fill: url(#Degradado_sin_nombre_18-4);
      }

      .cls-8 {
        fill: url(#Degradado_sin_nombre_18-6);
      }

      .cls-9 {
        fill: url(#Degradado_sin_nombre_18-3);
      }

      .cls-10 {
        fill: url(#Degradado_sin_nombre_18-9);
      }
    </style>
    <filter id="drop-shadow-1" filterUnits="userSpaceOnUse">
      <feOffset dx="7" dy="7"/>
      <feGaussianBlur result="blur" stdDeviation="5"/>
      <feFlood flood-color="#000" flood-opacity=".4"/>
      <feComposite in2="blur" operator="in"/>
      <feComposite in="SourceGraphic"/>
    </filter>
    <linearGradient id="Degradado_sin_nombre_18" data-name="Degradado sin nombre 18" x1="-11.83" y1="-5.56" x2="127.24" y2="125.38" gradientUnits="userSpaceOnUse">
      <stop offset="0" stop-color="#0071ff"/>
      <stop offset="1" stop-color="#b7008a"/>
    </linearGradient>
    <linearGradient id="Degradado_sin_nombre_18-2" data-name="Degradado sin nombre 18" x1="-7.11" y1="-10.58" x2="131.96" y2="120.37" xlink:href="#Degradado_sin_nombre_18"/>
    <linearGradient id="Degradado_sin_nombre_18-3" data-name="Degradado sin nombre 18" x1="4.95" y1="-23.38" x2="144.02" y2="107.56" xlink:href="#Degradado_sin_nombre_18"/>
    <linearGradient id="Degradado_sin_nombre_18-4" data-name="Degradado sin nombre 18" x1="-16.77" y1="-.32" x2="122.3" y2="130.62" xlink:href="#Degradado_sin_nombre_18"/>
    <linearGradient id="Degradado_sin_nombre_18-5" data-name="Degradado sin nombre 18" x1="-11.22" y1="-6.21" x2="127.85" y2="124.73" xlink:href="#Degradado_sin_nombre_18"/>
    <linearGradient id="Degradado_sin_nombre_18-6" data-name="Degradado sin nombre 18" x1="-22.95" y1="6.25" x2="116.12" y2="137.19" xlink:href="#Degradado_sin_nombre_18"/>
    <linearGradient id="Degradado_sin_nombre_18-7" data-name="Degradado sin nombre 18" x1="-5.67" y1="-12.11" x2="133.4" y2="118.84" xlink:href="#Degradado_sin_nombre_18"/>
    <linearGradient id="Degradado_sin_nombre_18-8" data-name="Degradado sin nombre 18" x1="-17.4" y1=".36" x2="121.67" y2="131.3" xlink:href="#Degradado_sin_nombre_18"/>
    <linearGradient id="Degradado_sin_nombre_18-9" data-name="Degradado sin nombre 18" x1="-11.86" y1="-5.53" x2="127.21" y2="125.41" xlink:href="#Degradado_sin_nombre_18"/>
  </defs>
  <g id="Capa_1-2" data-name="Capa 1">
    <g>
      <circle class="cls-5" cx="55.97" cy="56.35" r="47.9"/>
      <g>
        <path class="cls-2" d="m54.74,78.86c-5.89,0-11.78,0-17.67,0-4.1,0-6.7-2.6-6.7-6.71,0-10.02,0-20.03,0-30.05,0-3.21,1.93-5.72,4.85-6.36.77-.17,1.55-.1,2.33-.1.46,0,.52.31.52.66,0,.91,0,1.81,0,2.72.01,2.33,1.62,4.07,3.83,4.13,2.19.06,4-1.68,4.1-3.98.04-.95.03-1.91,0-2.87,0-.46.1-.68.63-.68,5.41.02,10.82.02,16.23,0,.61,0,.78.24.77.81,0,1.08-.06,2.16.09,3.24.28,2.02,2.04,3.56,4.02,3.46,2.17-.1,3.78-1.72,3.83-3.89.02-.98,0-1.96.01-2.94,0-.35.06-.63.52-.67,3.21-.31,5.66,1.27,6.71,3.81.31.75.47,1.54.47,2.35,0,10.24.01,20.49,0,30.73,0,3.68-2.71,6.33-6.45,6.34-6.04.02-12.08,0-18.12,0Zm.18-29.41c-6.57,0-13.13,0-19.7-.01-.62,0-.9.13-.9.83.02,7.52.02,15.05,0,22.57,0,.87.44,1.41,1.13,1.82.48.29,1.02.25,1.54.25,8.53,0,17.06,0,25.59,0,3.47,0,6.94,0,10.42,0,1.6,0,2.35-.78,2.36-2.36,0-7.35,0-14.69,0-22.04,0-1.04,0-1.04-1.04-1.04-6.47,0-12.93,0-19.4,0Z"/>
        <path class="cls-1" d="m44.91,35.71c0,1.11.01,2.21,0,3.32-.02,1.67-1.27,2.98-2.85,3-1.54.02-2.83-1.22-2.9-2.88-.05-1.23-.02-2.47-.02-3.7,0-1.03-.03-2.07.01-3.1.06-1.27.57-2.29,1.82-2.79,1.1-.44,2.31-.16,3.12.69.54.58.8,1.27.81,2.06,0,1.13,0,2.26,0,3.4Z"/>
        <path class="cls-9" d="m64.79,35.67c0-1.11-.02-2.21,0-3.32.03-1.71,1.26-2.98,2.86-3.01,1.55-.03,2.85,1.2,2.9,2.88.06,2.34.06,4.68,0,7.02-.04,1.56-1.34,2.77-2.84,2.79-1.52.02-2.83-1.21-2.9-2.81-.05-1.18-.01-2.36-.01-3.55,0,0,0,0,0,0Z"/>
        <path class="cls-7" d="m43.09,52.09c.75,0,1.51-.01,2.26,0,.97.02,1.59.57,1.62,1.53.04,1.61.04,3.22,0,4.83-.02.85-.61,1.4-1.46,1.42-1.64.03-3.27.03-4.91,0-.85-.02-1.43-.55-1.46-1.43-.05-1.63-.05-3.27,0-4.9.02-.88.64-1.41,1.54-1.44.8-.02,1.61,0,2.42,0Z"/>
        <path class="cls-3" d="m54.84,59.88c-.78,0-1.56.02-2.34,0-.96-.03-1.54-.52-1.57-1.48-.05-1.58-.06-3.17,0-4.75.04-1.04.63-1.54,1.67-1.55,1.51-.01,3.02-.01,4.53,0,1.06.01,1.63.57,1.64,1.64.02,1.48.02,2.97,0,4.45-.02,1.16-.58,1.68-1.75,1.69-.73,0-1.46,0-2.19,0,0,0,0,0,0,0Z"/>
        <path class="cls-8" d="m43.05,72.26c-.8,0-1.61.02-2.41,0-.9-.03-1.48-.57-1.5-1.46-.04-1.58-.04-3.17,0-4.75.03-1.03.61-1.55,1.64-1.56,1.51-.02,3.02-.02,4.53,0,1.02.01,1.63.55,1.66,1.56.05,1.56.05,3.12,0,4.67-.04,1.07-.58,1.52-1.65,1.54-.75.01-1.51,0-2.26,0h0Z"/>
        <path class="cls-4" d="m66.68,59.88c-.78,0-1.56.01-2.34,0-.96-.02-1.56-.5-1.6-1.45-.06-1.61-.06-3.22.02-4.82.05-1.05.63-1.5,1.69-1.51,1.48-.01,2.97-.01,4.45,0,1.1.01,1.66.58,1.67,1.69.02,1.46.01,2.92,0,4.37-.01,1.17-.55,1.7-1.71,1.72-.05,0-.1,0-.15,0-.68,0-1.36,0-2.04,0h0Z"/>
        <path class="cls-6" d="m54.82,72.27c-.75,0-1.51.01-2.26,0-1.03-.02-1.61-.53-1.63-1.56-.04-1.53-.04-3.07,0-4.6.03-1.03.67-1.61,1.7-1.62,1.51-.02,3.02-.01,4.52,0,.97.01,1.58.55,1.61,1.52.05,1.58.04,3.17,0,4.75-.03.98-.62,1.49-1.61,1.51-.78.01-1.56,0-2.34,0Z"/>
        <path class="cls-10" d="m66.68,72.27c-.78,0-1.56.01-2.34,0-.96-.02-1.51-.43-1.58-1.36-.12-1.68-.14-3.37.01-5.04.08-.87.65-1.35,1.52-1.37,1.58-.03,3.17-.03,4.75,0,.89.01,1.48.56,1.51,1.46.05,1.63.05,3.27,0,4.9-.02.87-.64,1.39-1.54,1.41-.78.02-1.56,0-2.34,0Z"/>
      </g>
    </g>
  </g>
</svg>